{
    "replace": false,
    "values": [
        "minecraft:white_wool",
        "minecraft:white_terracotta",
        "minecraft:white_stained_glass",
        "minecraft:white_concrete",
        "minecraft:white_concrete_powder",
        "minecraft:white_shulker_box",
        "minecraft:magenta_wool",
        "minecraft:magenta_terracotta",
        "minecraft:magenta_stained_glass",
        "minecraft:magenta_concrete",
        "minecraft:magenta_concrete_powder",
        "minecraft:magenta_shulker_box",
        "minecraft:light_blue_wool",
        "minecraft:light_blue_terracotta",
        "minecraft:light_blue_stained_glass",
        "minecraft:light_blue_concrete",
        "minecraft:light_blue_concrete_powder",
        "minecraft:light_blue_shulker_box",
        "minecraft:pink_wool",
        "minecraft:pink_terracotta",
        "minecraft:pink_stained_glass",
        "minecraft:pink_concrete",
        "minecraft:pink_concrete_powder",
        "minecraft:pink_shulker_box",
        "minecraft:light_gray_wool",
        "minecraft:light_gray_terracotta",
        "minecraft:light_gray_stained_glass",
        "minecraft:light_gray_concrete",
        "minecraft:light_gray_concrete_powder",
        "minecraft:light_gray_shulker_box",
        "minecraft:cyan_wool",
        "minecraft:cyan_terracotta",
        "minecraft:cyan_stained_glass",
        "minecraft:cyan_concrete",
        "minecraft:cyan_concrete_powder",
        "minecraft:cyan_shulker_box",
        "minecraft:purple_wool",
        "minecraft:purple_terracotta",
        "minecraft:purple_stained_glass",
        "minecraft:purple_concrete",
        "minecraft:purple_concrete_powder",
        "minecraft:purple_shulker_box",
        "minecraft:blue_wool",
        "minecraft:blue_terracotta",
        "minecraft:blue_stained_glass",
        "minecraft:blue_concrete",
        "minecraft:blue_concrete_powder",
        "minecraft:blue_shulker_box"
    ]
}