{
    "required": true,
    "package": "me.sargunvohra.mcmods.composableautomation.mixin",
    "compatibilityLevel": "JAVA_8",
    "minVersion": "0.7.11-SNAPSHOT",
    "mixins": [
        "MixinHopperBlockEntity",
        "MixinItemEntity",
        "AccessFluidTags",
//        "MixinProcessingRecipe",
        "MixinHopperBlock"
    ],
    "injectors": {
        "defaultRequire": 1
    }
}
