{
    "multipart": [
        {
            "when": {
                "facing": "north",
                "powered": false
            },
            "apply": {
                "model": "composableautomation:block/chute"
            }
        },
        {
            "when": {
                "facing": "east",
                "powered": false
            },
            "apply": {
                "model": "composableautomation:block/chute",
                "y": 90
            }
        },
        {
            "when": {
                "facing": "south",
                "powered": false
            },
            "apply": {
                "model": "composableautomation:block/chute",
                "y": 180
            }
        },
        {
            "when": {
                "facing": "west",
                "powered": false
            },
            "apply": {
                "model": "composableautomation:block/chute",
                "y": 270
            }
        },
        {
            "when": {
                "facing": "down",
                "powered": false
            },
            "apply": {
                "model": "composableautomation:block/chute",
                "x": 90
            }
        },
        {
            "when": {
                "facing": "north",
                "powered": true
            },
            "apply": {
                "model": "composableautomation:block/chute_powered"
            }
        },
        {
            "when": {
                "facing": "east",
                "powered": true
            },
            "apply": {
                "model": "composableautomation:block/chute_powered",
                "y": 90
            }
        },
        {
            "when": {
                "facing": "south",
                "powered": true
            },
            "apply": {
                "model": "composableautomation:block/chute_powered",
                "y": 180
            }
        },
        {
            "when": {
                "facing": "west",
                "powered": true
            },
            "apply": {
                "model": "composableautomation:block/chute_powered",
                "y": 270
            }
        },
        {
            "when": {
                "facing": "down",
                "powered": true
            },
            "apply": {
                "model": "composableautomation:block/chute_powered",
                "x": 90
            }
        },
        {
            "when": {
                "north": "true"
            },
            "apply": {
                "model": "composableautomation:block/chute_input"
            }
        },
        {
            "when": {
                "east": "true"
            },
            "apply": {
                "model": "composableautomation:block/chute_input",
                "y": 90
            }
        },
        {
            "when": {
                "south": "true"
            },
            "apply": {
                "model": "composableautomation:block/chute_input",
                "y": 180
            }
        },
        {
            "when": {
                "west": "true"
            },
            "apply": {
                "model": "composableautomation:block/chute_input",
                "y": 270
            }
        },
        {
            "when": {
                "up": "true"
            },
            "apply": {
                "model": "composableautomation:block/chute_input",
                "x": -90
            }
        }
    ]
}
