{
    "variants": {
        "facing=up,powered=not_powered": { "model": "composableautomation:block/red_photosensor", "x": 270 },
        "facing=down,powered=not_powered": { "model": "composableautomation:block/red_photosensor", "x": 90 },
        "facing=north,powered=not_powered": { "model": "composableautomation:block/red_photosensor" },
        "facing=south,powered=not_powered": { "model": "composableautomation:block/red_photosensor", "y": 180 },
        "facing=west,powered=not_powered": { "model": "composableautomation:block/red_photosensor", "y": 270 },
        "facing=east,powered=not_powered": { "model": "composableautomation:block/red_photosensor", "y": 90 },
        "facing=up,powered=powered": { "model": "composableautomation:block/red_photosensor_on", "x": 270 },
        "facing=down,powered=powered": { "model": "composableautomation:block/red_photosensor_on", "x": 90 },
        "facing=north,powered=powered": { "model": "composableautomation:block/red_photosensor_on" },
        "facing=south,powered=powered": { "model": "composableautomation:block/red_photosensor_on", "y": 180 },
        "facing=west,powered=powered": { "model": "composableautomation:block/red_photosensor_on", "y": 270 },
        "facing=east,powered=powered": { "model": "composableautomation:block/red_photosensor_on", "y": 90 },
        "facing=up,powered=strongly_powered": { "model": "composableautomation:block/red_photosensor_on", "x": 270 },
        "facing=down,powered=strongly_powered": { "model": "composableautomation:block/red_photosensor_on", "x": 90 },
        "facing=north,powered=strongly_powered": { "model": "composableautomation:block/red_photosensor_on" },
        "facing=south,powered=strongly_powered": { "model": "composableautomation:block/red_photosensor_on", "y": 180 },
        "facing=west,powered=strongly_powered": { "model": "composableautomation:block/red_photosensor_on", "y": 270 },
        "facing=east,powered=strongly_powered": { "model": "composableautomation:block/red_photosensor_on", "y": 90 }
    }
}
