{
    "variants": {
        "mode=clockwise": { "model": "composableautomation:block/rotator_clockwise" },
        "mode=counter_clockwise": { "model": "composableautomation:block/rotator_counter_clockwise" }
    }
}
