{
    "type": "composableautomation:burning",
    "ingredient": {
        "item": "composableautomation:nether_dust"
    },
    "result": {
        "item": "minecraft:gunpowder",
        "count": 1
    }
}
